LocationType,Location,TimeFrame,DataFormat,Data
Nation,United States,2000,Number,130188
Nation,United States,2001,Number,130089
Nation,United States,2002,Number,124351
Nation,United States,2003,Number,119766
Nation,United States,2004,Number,130638
Nation,United States,2005,Number,130399
Nation,United States,2006,Number,129812
Nation,United States,2007,Number,133816
Nation,United States,2008,Number,125455
Nation,United States,2013,Number,101977
Nation,United States,2018,Number,125422
Nation,United States,2009,Number,114562
Nation,United States,2010,Number,107007
Nation,United States,2015,Number,111820
Nation,United States,2011,Number,106349
Nation,United States,2014,Number,107916
Nation,United States,2012,Number,101600
Nation,United States,2016,Number,117794
Nation,United States,2017,Number,123590
State,Alabama,2017,Number,1268
State,Alabama,2016,Number,1075
State,Alabama,2014,Number,1027
State,Alabama,2012,Number,1156
State,Alabama,2015,Number,1020
State,Alabama,2011,Number,1297
State,Alabama,2010,Number,1271
State,Alabama,2009,Number,1582
State,Alabama,2018,Number,1346
State,Alabama,2013,Number,1076
State,Alabama,2008,Number,1692
State,Alabama,2007,Number,1820
State,Alabama,2005,Number,2128
State,Alabama,2006,Number,1658
State,Alabama,2003,Number,1545
State,Alabama,2004,Number,1599
State,Alabama,2002,Number,1476
State,Alabama,2001,Number,1243
State,Alabama,2000,Number,1119
State,Alaska,2000,Number,681
State,Alaska,2001,Number,697
State,Alaska,2002,Number,617
State,Alaska,2004,Number,649
State,Alaska,2003,Number,634
State,Alaska,2006,Number,724
State,Alaska,2005,Number,489
State,Alaska,2007,Number,777
State,Alaska,2008,Number,807
State,Alaska,2018,Number,1004
State,Alaska,2009,Number,751
State,Alaska,2010,Number,678
State,Alaska,2013,Number,866
State,Alaska,2011,Number,720
State,Alaska,2015,Number,783
State,Alaska,2012,Number,804
State,Alaska,2014,Number,704
State,Alaska,2016,Number,947
State,Alaska,2017,Number,1039
State,Arizona,2017,Number,4749
State,Arizona,2016,Number,4713
State,Arizona,2014,Number,3641
State,Arizona,2012,Number,2914
State,Arizona,2015,Number,4060
State,Arizona,2011,Number,2822
State,Arizona,2010,Number,2673
State,Arizona,2009,Number,2691
State,Arizona,2018,Number,4216
State,Arizona,2013,Number,3579
State,Arizona,2008,Number,2153
State,Arizona,2007,Number,2492
State,Arizona,2005,Number,2478
State,Arizona,2006,Number,2634
State,Arizona,2003,Number,1676
State,Arizona,2004,Number,2124
State,Arizona,2002,Number,1649
State,Arizona,2001,Number,2507
State,Arizona,2000,Number,2340
State,Arkansas,2000,Number,821
State,Arkansas,2001,Number,804
State,Arkansas,2002,Number,983
State,Arkansas,2004,Number,949
State,Arkansas,2003,Number,984
State,Arkansas,2006,Number,945
State,Arkansas,2005,Number,1191
State,Arkansas,2007,Number,780
State,Arkansas,2008,Number,872
State,Arkansas,2013,Number,994
State,Arkansas,2018,Number,1351
State,Arkansas,2009,Number,850
State,Arkansas,2010,Number,876
State,Arkansas,2011,Number,1414
State,Arkansas,2015,Number,1122
State,Arkansas,2012,Number,1023
State,Arkansas,2014,Number,1034
State,Arkansas,2016,Number,1198
State,Arkansas,2017,Number,1330
State,California,2017,Number,15097
State,California,2016,Number,14689
State,California,2014,Number,14096
State,California,2012,Number,13091
State,California,2015,Number,14180
State,California,2011,Number,14630
State,California,2010,Number,13394
State,California,2009,Number,15634
State,California,2018,Number,14866
State,California,2013,Number,13167
State,California,2008,Number,17810
State,California,2007,Number,20832
State,California,2005,Number,16700
State,California,2006,Number,18028
State,California,2003,Number,5437
State,California,2004,Number,16299
State,California,2002,Number,6300
State,California,2001,Number,7651
State,California,2000,Number,11953
State,Colorado,2000,Number,1771
State,Colorado,2001,Number,1477
State,Colorado,2002,Number,2068
State,Colorado,2004,Number,1684
State,Colorado,2003,Number,1742
State,Colorado,2006,Number,2099
State,Colorado,2005,Number,1785
State,Colorado,2007,Number,1762
State,Colorado,2008,Number,1878
State,Colorado,2013,Number,896
State,Colorado,2018,Number,997
State,Colorado,2009,Number,1647
State,Colorado,2010,Number,1246
State,Colorado,2015,Number,926
State,Colorado,2011,Number,1098
State,Colorado,2012,Number,917
State,Colorado,2014,Number,1008
State,Colorado,2016,Number,1038
State,Colorado,2017,Number,953
State,Connecticut,2017,Number,1157
State,Connecticut,2016,Number,1111
State,Connecticut,2014,Number,1227
State,Connecticut,2012,Number,1385
State,Connecticut,2015,Number,1197
State,Connecticut,2011,Number,1344
State,Connecticut,2010,Number,1245
State,Connecticut,2009,Number,1354
State,Connecticut,2018,Number,1235
State,Connecticut,2013,Number,1158
State,Connecticut,2008,Number,1430
State,Connecticut,2007,Number,1494
State,Connecticut,2005,Number,1381
State,Connecticut,2006,Number,1502
State,Connecticut,2004,Number,1450
State,Connecticut,2003,Number,1374
State,Connecticut,2002,Number,1102
State,Connecticut,2001,Number,979
State,Connecticut,2000,Number,998
State,Delaware,2000,Number,333
State,Delaware,2001,Number,335
State,Delaware,2002,Number,227
State,Delaware,2003,Number,170
State,Delaware,2004,Number,218
State,Delaware,2006,Number,302
State,Delaware,2005,Number,274
State,Delaware,2007,Number,311
State,Delaware,2008,Number,304
State,Delaware,2013,Number,218
State,Delaware,2018,Number,252
State,Delaware,2010,Number,253
State,Delaware,2009,Number,239
State,Delaware,2015,Number,223
State,Delaware,2011,Number,244
State,Delaware,2012,Number,243
State,Delaware,2014,Number,202
State,Delaware,2016,Number,254
State,Delaware,2017,Number,281
City,District of Columbia,2017,Number,190
City,District of Columbia,2016,Number,217
City,District of Columbia,2014,Number,243
City,District of Columbia,2012,Number,303
City,District of Columbia,2011,Number,357
City,District of Columbia,2015,Number,224
City,District of Columbia,2010,Number,419
City,District of Columbia,2009,Number,486
City,District of Columbia,2018,Number,181
City,District of Columbia,2013,Number,268
City,District of Columbia,2008,Number,493
City,District of Columbia,2007,Number,560
City,District of Columbia,2005,Number,620
City,District of Columbia,2006,Number,623
City,District of Columbia,2004,Number,791
City,District of Columbia,2003,Number,1124
City,District of Columbia,2002,Number,1169
City,District of Columbia,2001,Number,1142
City,District of Columbia,2000,Number,1082
State,Florida,2000,Number,5368
State,Florida,2001,Number,7769
State,Florida,2002,Number,8080
State,Florida,2003,Number,8173
State,Florida,2004,Number,7691
State,Florida,2006,Number,7480
State,Florida,2005,Number,7379
State,Florida,2007,Number,7824
State,Florida,2008,Number,7942
State,Florida,2013,Number,3458
State,Florida,2018,Number,9144
State,Florida,2009,Number,6349
State,Florida,2015,Number,5945
State,Florida,2011,Number,4994
State,Florida,2010,Number,5011
State,Florida,2012,Number,5129
State,Florida,2014,Number,5558
State,Florida,2016,Number,6870
State,Florida,2017,Number,7977
State,Georgia,2017,Number,3404
State,Georgia,2016,Number,2998
State,Georgia,2014,Number,1983
State,Georgia,2012,Number,1648
State,Georgia,2010,Number,1690
State,Georgia,2011,Number,1567
State,Georgia,2015,Number,2544
State,Georgia,2009,Number,1791
State,Georgia,2018,Number,3633
State,Georgia,2013,Number,1799
State,Georgia,2008,Number,2245
State,Georgia,2007,Number,2162
State,Georgia,2005,Number,2370
State,Georgia,2006,Number,2305
State,Georgia,2004,Number,2507
State,Georgia,2003,Number,2474
State,Georgia,2002,Number,3184
State,Georgia,2001,Number,4155
State,Georgia,2000,Number,2860
State,Hawaii,2000,Number,706
State,Hawaii,2001,Number,748
State,Hawaii,2002,Number,718
State,Hawaii,2003,Number,765
State,Hawaii,2004,Number,923
State,Hawaii,2006,Number,787
State,Hawaii,2005,Number,955
State,Hawaii,2007,Number,733
State,Hawaii,2008,Number,555
State,Hawaii,2013,Number,154
State,Hawaii,2018,Number,290
State,Hawaii,2009,Number,401
State,Hawaii,2015,Number,142
State,Hawaii,2011,Number,296
State,Hawaii,2010,Number,322
State,Hawaii,2012,Number,223
State,Hawaii,2014,Number,187
State,Hawaii,2016,Number,177
State,Hawaii,2017,Number,247
State,Idaho,2017,Number,287
State,Idaho,2016,Number,390
State,Idaho,2014,Number,322
State,Idaho,2012,Number,278
State,Idaho,2010,Number,389
State,Idaho,2011,Number,334
State,Idaho,2015,Number,318
State,Idaho,2009,Number,498
State,Idaho,2018,Number,532
State,Idaho,2013,Number,328
State,Idaho,2008,Number,576
State,Idaho,2005,Number,373
State,Idaho,2007,Number,593
State,Idaho,2006,Number,555
State,Idaho,2004,Number,310
State,Idaho,2003,Number,254
State,Idaho,2002,Number,258
State,Idaho,2001,Number,227
State,Idaho,2000,Number,184
State,Illinois,2000,Number,10700
State,Illinois,2001,Number,8931
State,Illinois,2002,Number,6193
State,Illinois,2003,Number,3780
State,Illinois,2004,Number,3432
State,Illinois,2006,Number,3042
State,Illinois,2007,Number,4407
State,Illinois,2005,Number,3347
State,Illinois,2008,Number,4608
State,Illinois,2013,Number,3103
State,Illinois,2018,Number,2710
State,Illinois,2009,Number,2728
State,Illinois,2015,Number,2806
State,Illinois,2011,Number,3272
State,Illinois,2010,Number,2944
State,Illinois,2012,Number,2936
State,Illinois,2014,Number,2854
State,Illinois,2017,Number,2848
State,Illinois,2016,Number,2966
State,Indiana,2016,Number,3773
State,Indiana,2017,Number,4418
State,Indiana,2014,Number,2731
State,Indiana,2012,Number,2320
State,Indiana,2010,Number,3192
State,Indiana,2011,Number,2886
State,Indiana,2015,Number,2965
State,Indiana,2009,Number,3136
State,Indiana,2018,Number,4778
State,Indiana,2013,Number,2437
State,Indiana,2008,Number,2931
State,Indiana,2005,Number,3194
State,Indiana,2007,Number,3211
State,Indiana,2006,Number,3343
State,Indiana,2004,Number,2550
State,Indiana,2003,Number,2396
State,Indiana,2002,Number,2330
State,Indiana,2001,Number,2381
State,Indiana,2000,Number,1949
State,Iowa,2000,Number,1010
State,Iowa,2001,Number,1113
State,Iowa,2002,Number,1263
State,Iowa,2003,Number,1131
State,Iowa,2004,Number,1139
State,Iowa,2006,Number,1439
State,Iowa,2007,Number,1298
State,Iowa,2005,Number,1265
State,Iowa,2008,Number,1158
State,Iowa,2013,Number,964
State,Iowa,2018,Number,1206
State,Iowa,2009,Number,1003
State,Iowa,2015,Number,1003
State,Iowa,2011,Number,1088
State,Iowa,2010,Number,1068
State,Iowa,2012,Number,961
State,Iowa,2014,Number,1050
State,Iowa,2017,Number,1137
State,Iowa,2016,Number,1071
State,Kansas,2016,Number,2392
State,Kansas,2017,Number,2583
State,Kansas,2014,Number,2116
State,Kansas,2012,Number,1853
State,Kansas,2010,Number,1825
State,Kansas,2011,Number,1817
State,Kansas,2015,Number,2340
State,Kansas,2009,Number,1852
State,Kansas,2018,Number,2616
State,Kansas,2013,Number,1843
State,Kansas,2008,Number,1960
State,Kansas,2005,Number,1811
State,Kansas,2007,Number,1812
State,Kansas,2006,Number,2031
State,Kansas,2004,Number,1926
State,Kansas,2003,Number,1978
State,Kansas,2002,Number,2073
State,Kansas,2001,Number,2031
State,Kansas,2000,Number,1875
State,Kentucky,2000,Number,2006
State,Kentucky,2001,Number,1925
State,Kentucky,2002,Number,1926
State,Kentucky,2003,Number,2032
State,Kentucky,2004,Number,1969
State,Kentucky,2006,Number,2083
State,Kentucky,2007,Number,2125
State,Kentucky,2005,Number,2124
State,Kentucky,2008,Number,2101
State,Kentucky,2013,Number,2224
State,Kentucky,2018,Number,2834
State,Kentucky,2009,Number,2048
State,Kentucky,2015,Number,2579
State,Kentucky,2011,Number,1918
State,Kentucky,2010,Number,1951
State,Kentucky,2012,Number,1999
State,Kentucky,2014,Number,2420
State,Kentucky,2017,Number,2563
State,Kentucky,2016,Number,2612
State,Louisiana,2016,Number,1297
State,Louisiana,2017,Number,1378
State,Louisiana,2014,Number,1033
State,Louisiana,2012,Number,1089
State,Louisiana,2010,Number,1091
State,Louisiana,2011,Number,1162
State,Louisiana,2015,Number,1220
State,Louisiana,2009,Number,1093
State,Louisiana,2018,Number,1395
State,Louisiana,2013,Number,961
State,Louisiana,2008,Number,1069
State,Louisiana,2005,Number,1162
State,Louisiana,2007,Number,1137
State,Louisiana,2006,Number,1079
State,Louisiana,2004,Number,1179
State,Louisiana,2003,Number,1315
State,Louisiana,2002,Number,1471
State,Louisiana,2001,Number,1439
State,Louisiana,2000,Number,1541
State,Maine,2000,Number,1128
State,Maine,2001,Number,1012
State,Maine,2002,Number,989
State,Maine,2003,Number,841
State,Maine,2004,Number,850
State,Maine,2006,Number,730
State,Maine,2007,Number,615
State,Maine,2005,Number,834
State,Maine,2008,Number,619
State,Maine,2013,Number,564
State,Maine,2018,Number,482
State,Maine,2009,Number,571
State,Maine,2015,Number,666
State,Maine,2011,Number,511
State,Maine,2010,Number,575
State,Maine,2012,Number,480
State,Maine,2014,Number,590
State,Maine,2017,Number,576
State,Maine,2016,Number,647
State,Maryland,2016,Number,468
State,Maryland,2017,Number,481
State,Maryland,2014,Number,464
State,Maryland,2012,Number,559
State,Maryland,2010,Number,883
State,Maryland,2011,Number,772
State,Maryland,2015,Number,508
State,Maryland,2009,Number,1220
State,Maryland,2018,Number,385
State,Maryland,2013,Number,498
State,Maryland,2008,Number,1438
State,Maryland,2005,Number,1953
State,Maryland,2007,Number,1760
State,Maryland,2006,Number,2168
State,Maryland,2004,Number,2202
State,Maryland,2003,Number,2499
State,Maryland,2002,Number,2931
State,Maryland,2001,Number,3244
State,Maryland,2000,Number,3043
State,Massachusetts,2000,Number,3141
State,Massachusetts,2001,Number,2907
State,Massachusetts,2002,Number,3107
State,Massachusetts,2003,Number,3052
State,Massachusetts,2004,Number,3006
State,Massachusetts,2006,Number,2705
State,Massachusetts,2007,Number,2868
State,Massachusetts,2005,Number,2925
State,Massachusetts,2008,Number,2846
State,Massachusetts,2013,Number,2489
State,Massachusetts,2018,Number,3381
State,Massachusetts,2009,Number,2837
State,Massachusetts,2015,Number,3052
State,Massachusetts,2011,Number,2675
State,Massachusetts,2010,Number,2758
State,Massachusetts,2012,Number,2469
State,Massachusetts,2014,Number,2771
State,Massachusetts,2017,Number,3656
State,Massachusetts,2016,Number,3481
State,Michigan,2016,Number,3416
State,Michigan,2017,Number,3646
State,Michigan,2014,Number,3584
State,Michigan,2012,Number,3586
State,Michigan,2010,Number,5235
State,Michigan,2011,Number,4237
State,Michigan,2015,Number,3875
State,Michigan,2009,Number,4902
State,Michigan,2018,Number,3898
State,Michigan,2013,Number,3337
State,Michigan,2008,Number,5674
State,Michigan,2005,Number,7059
State,Michigan,2007,Number,6116
State,Michigan,2006,Number,6163
State,Michigan,2004,Number,6486
State,Michigan,2003,Number,6966
State,Michigan,2002,Number,6751
State,Michigan,2001,Number,7726
State,Michigan,2000,Number,7627
State,Minnesota,2000,Number,1725
State,Minnesota,2001,Number,1611
State,Minnesota,2002,Number,1548
State,Minnesota,2003,Number,1918
State,Minnesota,2004,Number,1795
State,Minnesota,2006,Number,1363
State,Minnesota,2007,Number,1526
State,Minnesota,2005,Number,1559
State,Minnesota,2008,Number,1393
State,Minnesota,2013,Number,1219
State,Minnesota,2018,Number,2026
State,Minnesota,2009,Number,1227
State,Minnesota,2015,Number,1285
State,Minnesota,2011,Number,955
State,Minnesota,2010,Number,1073
State,Minnesota,2012,Number,983
State,Minnesota,2014,Number,1188
State,Minnesota,2017,Number,1990
State,Minnesota,2016,Number,1541
State,Mississippi,2016,Number,1553
State,Mississippi,2017,Number,1867
State,Mississippi,2014,Number,1184
State,Mississippi,2012,Number,890
State,Mississippi,2010,Number,843
State,Mississippi,2011,Number,880
State,Mississippi,2015,Number,1437
State,Mississippi,2009,Number,975
State,Mississippi,2018,Number,1730
State,Mississippi,2013,Number,1000
State,Mississippi,2008,Number,996
State,Mississippi,2005,Number,858
State,Mississippi,2007,Number,898
State,Mississippi,2006,Number,897
State,Mississippi,2004,Number,914
State,Mississippi,2003,Number,811
State,Mississippi,2002,Number,803
State,Mississippi,2001,Number,476
State,Mississippi,2000,Number,493
State,Missouri,2000,Number,3104
State,Missouri,2001,Number,2990
State,Missouri,2002,Number,2844
State,Missouri,2003,Number,3352
State,Missouri,2004,Number,3228
State,Missouri,2006,Number,2722
State,Missouri,2005,Number,3532
State,Missouri,2007,Number,2558
State,Missouri,2008,Number,2606
State,Missouri,2013,Number,2162
State,Missouri,2018,Number,2783
State,Missouri,2009,Number,2335
State,Missouri,2015,Number,2513
State,Missouri,2011,Number,2056
State,Missouri,2010,Number,1952
State,Missouri,2012,Number,2067
State,Missouri,2014,Number,2325
State,Missouri,2017,Number,2825
State,Missouri,2016,Number,2584
State,Montana,2016,Number,633
State,Montana,2017,Number,831
State,Montana,2014,Number,587
State,Montana,2012,Number,403
State,Montana,2010,Number,495
State,Montana,2011,Number,460
State,Montana,2015,Number,580
State,Montana,2009,Number,537
State,Montana,2018,Number,977
State,Montana,2013,Number,498
State,Montana,2008,Number,521
State,Montana,2007,Number,597
State,Montana,2005,Number,646
State,Montana,2006,Number,608
State,Montana,2004,Number,713
State,Montana,2003,Number,639
State,Montana,2002,Number,669
State,Montana,2001,Number,739
State,Montana,2000,Number,838
State,Nebraska,2000,Number,476
State,Nebraska,2001,Number,347
State,Nebraska,2002,Number,671
State,Nebraska,2003,Number,812
State,Nebraska,2004,Number,920
State,Nebraska,2006,Number,972
State,Nebraska,2005,Number,916
State,Nebraska,2007,Number,805
State,Nebraska,2008,Number,881
State,Nebraska,2013,Number,705
State,Nebraska,2018,Number,817
State,Nebraska,2009,Number,831
State,Nebraska,2011,Number,831
State,Nebraska,2010,Number,768
State,Nebraska,2015,Number,715
State,Nebraska,2012,Number,904
State,Nebraska,2014,Number,690
State,Nebraska,2017,Number,771
State,Nebraska,2016,Number,715
State,Nevada,2016,Number,1616
State,Nevada,2017,Number,1672
State,Nevada,2014,Number,2059
State,Nevada,2012,Number,1879
State,Nevada,2015,Number,1998
State,Nevada,2010,Number,2093
State,Nevada,2011,Number,1970
State,Nevada,2009,Number,2095
State,Nevada,2018,Number,1664
State,Nevada,2013,Number,1956
State,Nevada,2008,Number,2200
State,Nevada,2007,Number,1933
State,Nevada,2005,Number,1749
State,Nevada,2006,Number,1820
State,Nevada,2004,Number,1581
State,Nevada,2003,Number,1056
State,Nevada,2002,Number,532
State,Nevada,2001,Number,590
State,Nevada,2000,Number,67
State,New Hampshire,2000,Number,206
State,New Hampshire,2001,Number,198
State,New Hampshire,2002,Number,193
State,New Hampshire,2003,Number,175
State,New Hampshire,2004,Number,239
State,New Hampshire,2006,Number,250
State,New Hampshire,2005,Number,272
State,New Hampshire,2007,Number,244
State,New Hampshire,2008,Number,297
State,New Hampshire,2013,Number,189
State,New Hampshire,2018,Number,129
State,New Hampshire,2009,Number,272
State,New Hampshire,2011,Number,167
State,New Hampshire,2010,Number,227
State,New Hampshire,2015,Number,146
State,New Hampshire,2012,Number,182
State,New Hampshire,2014,Number,159
State,New Hampshire,2017,Number,208
State,New Hampshire,2016,Number,131
State,New Jersey,2016,Number,2567
State,New Jersey,2017,Number,2479
State,New Jersey,2014,Number,2593
State,New Jersey,2012,Number,2227
State,New Jersey,2015,Number,2698
State,New Jersey,2010,Number,2457
State,New Jersey,2011,Number,2294
State,New Jersey,2009,Number,2688
State,New Jersey,2018,Number,2267
State,New Jersey,2013,Number,2443
State,New Jersey,2008,Number,3009
State,New Jersey,2007,Number,4193
State,New Jersey,2005,Number,4845
State,New Jersey,2006,Number,4672
State,New Jersey,2004,Number,5111
State,New Jersey,2003,Number,5264
State,New Jersey,2002,Number,5050
State,New Jersey,2001,Number,5138
State,New Jersey,2000,Number,4799
State,New Mexico,2000,Number,822
State,New Mexico,2001,Number,667
State,New Mexico,2002,Number,514
State,New Mexico,2003,Number,583
State,New Mexico,2004,Number,634
State,New Mexico,2006,Number,860
State,New Mexico,2005,Number,711
State,New Mexico,2007,Number,963
State,New Mexico,2008,Number,907
State,New Mexico,2013,Number,880
State,New Mexico,2018,Number,1205
State,New Mexico,2009,Number,878
State,New Mexico,2011,Number,786
State,New Mexico,2010,Number,777
State,New Mexico,2015,Number,1134
State,New Mexico,2012,Number,838
State,New Mexico,2014,Number,990
State,New Mexico,2017,Number,1424
State,New Mexico,2016,Number,1263
State,New York,2016,Number,4824
State,New York,2017,Number,4571
State,New York,2014,Number,5463
State,New York,2012,Number,6061
State,New York,2015,Number,5172
State,New York,2010,Number,6603
State,New York,2011,Number,6417
State,New York,2009,Number,6890
State,New York,2018,Number,4239
State,New York,2013,Number,5843
State,New York,2008,Number,7014
State,New York,2007,Number,7659
State,New York,2005,Number,9238
State,New York,2006,Number,8039
State,New York,2004,Number,10650
State,New York,2003,Number,12529
State,New York,2002,Number,13729
State,New York,2001,Number,14448
State,New York,2000,Number,15661
State,North Carolina,2000,Number,3689
State,North Carolina,2001,Number,3310
State,North Carolina,2002,Number,3119
State,North Carolina,2003,Number,3087
State,North Carolina,2004,Number,3074
State,North Carolina,2006,Number,3116
State,North Carolina,2005,Number,3137
State,North Carolina,2007,Number,3095
State,North Carolina,2008,Number,2903
State,North Carolina,2018,Number,2819
State,North Carolina,2013,Number,2172
State,North Carolina,2009,Number,2722
State,North Carolina,2011,Number,2234
State,North Carolina,2010,Number,2427
State,North Carolina,2015,Number,2739
State,North Carolina,2012,Number,2071
State,North Carolina,2014,Number,2416
State,North Carolina,2017,Number,2907
State,North Carolina,2016,Number,2936
State,North Dakota,2016,Number,355
State,North Dakota,2017,Number,396
State,North Dakota,2014,Number,262
State,North Dakota,2012,Number,211
State,North Dakota,2015,Number,296
State,North Dakota,2010,Number,227
State,North Dakota,2011,Number,230
State,North Dakota,2009,Number,315
State,North Dakota,2018,Number,429
State,North Dakota,2008,Number,301
State,North Dakota,2013,Number,237
State,North Dakota,2007,Number,337
State,North Dakota,2005,Number,344
State,North Dakota,2006,Number,321
State,North Dakota,2004,Number,277
State,North Dakota,2003,Number,316
State,North Dakota,2002,Number,320
State,North Dakota,2001,Number,320
State,North Dakota,2000,Number,321
State,Ohio,2000,Number,4364
State,Ohio,2001,Number,5776
State,Ohio,2002,Number,5615
State,Ohio,2003,Number,5098
State,Ohio,2004,Number,4814
State,Ohio,2006,Number,4014
State,Ohio,2005,Number,4350
State,Ohio,2007,Number,3781
State,Ohio,2013,Number,2976
State,Ohio,2008,Number,3477
State,Ohio,2018,Number,3579
State,Ohio,2009,Number,3382
State,Ohio,2011,Number,2789
State,Ohio,2010,Number,3011
State,Ohio,2015,Number,3010
State,Ohio,2012,Number,2655
State,Ohio,2014,Number,2942
State,Ohio,2017,Number,3373
State,Ohio,2016,Number,3201
State,Oklahoma,2016,Number,4362
State,Oklahoma,2017,Number,4075
State,Oklahoma,2014,Number,3975
State,Oklahoma,2012,Number,2803
State,Oklahoma,2015,Number,4288
State,Oklahoma,2010,Number,2872
State,Oklahoma,2011,Number,2956
State,Oklahoma,2009,Number,3429
State,Oklahoma,2018,Number,4014
State,Oklahoma,2008,Number,3766
State,Oklahoma,2013,Number,3241
State,Oklahoma,2007,Number,4628
State,Oklahoma,2005,Number,3204
State,Oklahoma,2006,Number,3592
State,Oklahoma,2004,Number,4429
State,Oklahoma,2003,Number,2611
State,Oklahoma,2002,Number,2434
State,Oklahoma,2001,Number,2389
State,Oklahoma,2000,Number,1757
State,Oregon,2000,Number,3147
State,Oregon,2001,Number,2679
State,Oregon,2002,Number,2503
State,Oregon,2003,Number,3164
State,Oregon,2004,Number,3302
State,Oregon,2006,Number,2776
State,Oregon,2005,Number,3441
State,Oregon,2007,Number,2527
State,Oregon,2013,Number,1854
State,Oregon,2008,Number,2206
State,Oregon,2018,Number,1792
State,Oregon,2009,Number,1840
State,Oregon,2010,Number,1827
State,Oregon,2015,Number,1729
State,Oregon,2012,Number,1873
State,Oregon,2011,Number,1830
State,Oregon,2014,Number,1783
State,Oregon,2017,Number,1613
State,Oregon,2016,Number,1666
State,Pennsylvania,2016,Number,3092
State,Pennsylvania,2017,Number,3711
State,Pennsylvania,2014,Number,1896
State,Pennsylvania,2012,Number,1924
State,Pennsylvania,2015,Number,2423
State,Pennsylvania,2010,Number,2522
State,Pennsylvania,2011,Number,2045
State,Pennsylvania,2009,Number,3016
State,Pennsylvania,2018,Number,3763
State,Pennsylvania,2008,Number,3037
State,Pennsylvania,2013,Number,1908
State,Pennsylvania,2007,Number,3379
State,Pennsylvania,2005,Number,3679
State,Pennsylvania,2006,Number,3559
State,Pennsylvania,2004,Number,3996
State,Pennsylvania,2002,Number,4201
State,Pennsylvania,2003,Number,4032
State,Pennsylvania,2001,Number,5213
State,Pennsylvania,2000,Number,5170
State,Rhode Island,2000,Number,386
State,Rhode Island,2001,Number,401
State,Rhode Island,2003,Number,319
State,Rhode Island,2002,Number,387
State,Rhode Island,2004,Number,331
State,Rhode Island,2006,Number,404
State,Rhode Island,2005,Number,407
State,Rhode Island,2007,Number,399
State,Rhode Island,2013,Number,250
State,Rhode Island,2008,Number,415
State,Rhode Island,2018,Number,316
State,Rhode Island,2009,Number,333
State,Rhode Island,2015,Number,303
State,Rhode Island,2010,Number,309
State,Rhode Island,2012,Number,222
State,Rhode Island,2011,Number,267
State,Rhode Island,2014,Number,212
State,Rhode Island,2017,Number,317
State,Rhode Island,2016,Number,296
State,South Carolina,2016,Number,1344
State,South Carolina,2017,Number,1470
State,South Carolina,2014,Number,1211
State,South Carolina,2011,Number,1415
State,South Carolina,2012,Number,1336
State,South Carolina,2010,Number,1681
State,South Carolina,2015,Number,1213
State,South Carolina,2009,Number,1807
State,South Carolina,2018,Number,1591
State,South Carolina,2008,Number,1803
State,South Carolina,2013,Number,1226
State,South Carolina,2007,Number,1779
State,South Carolina,2005,Number,1819
State,South Carolina,2006,Number,1750
State,South Carolina,2004,Number,1769
State,South Carolina,2002,Number,1939
State,South Carolina,2003,Number,1493
State,South Carolina,2001,Number,2137
State,South Carolina,2000,Number,2187
State,South Dakota,2000,Number,297
State,South Dakota,2001,Number,401
State,South Dakota,2003,Number,443
State,South Dakota,2002,Number,433
State,South Dakota,2004,Number,480
State,South Dakota,2006,Number,507
State,South Dakota,2005,Number,472
State,South Dakota,2007,Number,452
State,South Dakota,2013,Number,354
State,South Dakota,2008,Number,423
State,South Dakota,2018,Number,371
State,South Dakota,2009,Number,380
State,South Dakota,2015,Number,308
State,South Dakota,2010,Number,418
State,South Dakota,2012,Number,397
State,South Dakota,2011,Number,376
State,South Dakota,2014,Number,336
State,South Dakota,2017,Number,365
State,South Dakota,2016,Number,361
State,Tennessee,2016,Number,2541
State,Tennessee,2017,Number,1322
State,Tennessee,2014,Number,2652
State,Tennessee,2011,Number,2027
State,Tennessee,2012,Number,2517
State,Tennessee,2010,Number,1645
State,Tennessee,2015,Number,2756
State,Tennessee,2009,Number,1326
State,Tennessee,2018,Number,1625
State,Tennessee,2008,Number,1477
State,Tennessee,2013,Number,2668
State,Tennessee,2007,Number,1622
State,Tennessee,2005,Number,1717
State,Tennessee,2006,Number,1788
State,Tennessee,2004,Number,1772
State,Tennessee,2002,Number,2326
State,Tennessee,2003,Number,1964
State,Tennessee,2001,Number,2263
State,Tennessee,2000,Number,1995
State,Texas,2000,Number,7189
State,Texas,2001,Number,7889
State,Texas,2003,Number,8785
State,Texas,2002,Number,8475
State,Texas,2004,Number,9957
State,Texas,2006,Number,12542
State,Texas,2005,Number,10947
State,Texas,2007,Number,13552
State,Texas,2013,Number,12991
State,Texas,2008,Number,13406
State,Texas,2018,Number,13822
State,Texas,2009,Number,12844
State,Texas,2010,Number,13111
State,Texas,2015,Number,12643
State,Texas,2012,Number,13154
State,Texas,2011,Number,13481
State,Texas,2014,Number,13238
State,Texas,2017,Number,13443
State,Texas,2016,Number,12377
State,Utah,2016,Number,630
State,Utah,2017,Number,802
State,Utah,2014,Number,629
State,Utah,2011,Number,567
State,Utah,2012,Number,567
State,Utah,2015,Number,594
State,Utah,2010,Number,553
State,Utah,2009,Number,565
State,Utah,2018,Number,728
State,Utah,2008,Number,553
State,Utah,2013,Number,608
State,Utah,2007,Number,571
State,Utah,2005,Number,436
State,Utah,2006,Number,475
State,Utah,2004,Number,437
State,Utah,2002,Number,449
State,Utah,2003,Number,446
State,Utah,2001,Number,332
State,Utah,2000,Number,350
State,Vermont,2000,Number,392
State,Vermont,2001,Number,300
State,Vermont,2003,Number,367
State,Vermont,2002,Number,419
State,Vermont,2004,Number,267
State,Vermont,2006,Number,251
State,Vermont,2005,Number,265
State,Vermont,2007,Number,257
State,Vermont,2013,Number,213
State,Vermont,2008,Number,225
State,Vermont,2018,Number,324
State,Vermont,2009,Number,231
State,Vermont,2010,Number,180
State,Vermont,2015,Number,304
State,Vermont,2012,Number,226
State,Vermont,2011,Number,196
State,Vermont,2014,Number,232
State,Vermont,2016,Number,387
State,Vermont,2017,Number,329
State,Virginia,2017,Number,1826
State,Virginia,2016,Number,1886
State,Virginia,2014,Number,1532
State,Virginia,2011,Number,1372
State,Virginia,2012,Number,1519
State,Virginia,2015,Number,1708
State,Virginia,2010,Number,1480
State,Virginia,2009,Number,1612
State,Virginia,2018,Number,1766
State,Virginia,2008,Number,1655
State,Virginia,2013,Number,1503
State,Virginia,2007,Number,1817
State,Virginia,2005,Number,1823
State,Virginia,2006,Number,1797
State,Virginia,2004,Number,1611
State,Virginia,2002,Number,1487
State,Virginia,2003,Number,1571
State,Virginia,2001,Number,1946
State,Virginia,2000,Number,2131
State,Washington,2000,Number,2504
State,Washington,2001,Number,2253
State,Washington,2003,Number,2370
State,Washington,2002,Number,2649
State,Washington,2004,Number,2317
State,Washington,2006,Number,2360
State,Washington,2005,Number,2168
State,Washington,2007,Number,2837
State,Washington,2013,Number,3101
State,Washington,2008,Number,3025
State,Washington,2018,Number,3733
State,Washington,2009,Number,2865
State,Washington,2010,Number,3089
State,Washington,2015,Number,3075
State,Washington,2012,Number,2860
State,Washington,2011,Number,2783
State,Washington,2014,Number,3213
State,Washington,2016,Number,3278
State,Washington,2017,Number,3569
State,West Virginia,2017,Number,2403
State,West Virginia,2016,Number,2147
State,West Virginia,2014,Number,1388
State,West Virginia,2011,Number,1474
State,West Virginia,2012,Number,1407
State,West Virginia,2015,Number,1456
State,West Virginia,2010,Number,1231
State,West Virginia,2009,Number,1220
State,West Virginia,2018,Number,2376
State,West Virginia,2008,Number,1300
State,West Virginia,2013,Number,1364
State,West Virginia,2007,Number,1272
State,West Virginia,2005,Number,1042
State,West Virginia,2006,Number,1075
State,West Virginia,2004,Number,976
State,West Virginia,2002,Number,965
State,West Virginia,2003,Number,1018
State,West Virginia,2001,Number,721
State,West Virginia,2000,Number,761
State,Wisconsin,2000,Number,1029
State,Wisconsin,2001,Number,1638
State,Wisconsin,2003,Number,1707
State,Wisconsin,2002,Number,1667
State,Wisconsin,2004,Number,1341
State,Wisconsin,2006,Number,1216
State,Wisconsin,2005,Number,1283
State,Wisconsin,2007,Number,1244
State,Wisconsin,2013,Number,1153
State,Wisconsin,2008,Number,1329
State,Wisconsin,2018,Number,1404
State,Wisconsin,2009,Number,1255
State,Wisconsin,2010,Number,1159
State,Wisconsin,2015,Number,1267
State,Wisconsin,2012,Number,1129
State,Wisconsin,2011,Number,1163
State,Wisconsin,2014,Number,1147
State,Wisconsin,2016,Number,1389
State,Wisconsin,2017,Number,1397
State,Wyoming,2017,Number,69
State,Wyoming,2016,Number,61
State,Wyoming,2014,Number,81
State,Wyoming,2011,Number,127
State,Wyoming,2012,Number,107
State,Wyoming,2015,Number,69
State,Wyoming,2010,Number,85
State,Wyoming,2009,Number,73
State,Wyoming,2018,Number,122
State,Wyoming,2008,Number,98
State,Wyoming,2013,Number,85
State,Wyoming,2007,Number,151
State,Wyoming,2005,Number,200
State,Wyoming,2006,Number,209
State,Wyoming,2004,Number,171
State,Wyoming,2002,Number,101
State,Wyoming,2003,Number,90
State,Wyoming,2001,Number,103
State,Wyoming,2000,Number,92
Territory,Puerto Rico,2000,Number,N.A.
Territory,Puerto Rico,2001,Number,371
Territory,Puerto Rico,2002,Number,1444
Territory,Puerto Rico,2003,Number,1404
Territory,Puerto Rico,2004,Number,1599
Territory,Puerto Rico,2005,Number,1542
Territory,Puerto Rico,2006,Number,1432
Territory,Puerto Rico,2007,Number,1251
Territory,Puerto Rico,2013,Number,797
Territory,Puerto Rico,2008,Number,1071
Territory,Puerto Rico,2009,Number,956
Territory,Puerto Rico,2018,Number,279
Territory,Puerto Rico,2010,Number,903
Territory,Puerto Rico,2015,Number,263
Territory,Puerto Rico,2012,Number,822
Territory,Puerto Rico,2011,Number,746
Territory,Puerto Rico,2014,Number,688
Territory,Puerto Rico,2016,Number,258
Territory,Puerto Rico,2017,Number,300
